<?xml version="1.0" encoding="UTF-8"?>
<svg width="86px" height="44px" viewBox="0 0 86 44" version="1.1" xmlns="http://www.w3.org/2000/svg" xmlns:xlink="http://www.w3.org/1999/xlink">
    <title>icon_number</title>
    <g id="icon_number" stroke="none" stroke-width="1" fill="none" fill-rule="evenodd">
        <rect id="Rectangle-3" stroke="#C6C8CD" x="0.5" y="0.5" width="85" height="43" rx="5"></rect>
        <text id="228C" font-family="CaviarDreams-Bold, Caviar Dreams" font-size="20" font-weight="bold" fill="#675C5C">
            <tspan x="16" y="29">228C</tspan>
        </text>
    </g>
</svg>