<svg version="1.1" xmlns="http://www.w3.org/2000/svg" width="28" height="28" viewBox="0 0 28 28">
<title>icon_account</title>
<path fill="#808285" opacity="0.6400000000000001" d="M14.238 4.667c2.66 0 4.77 2.545 4.77 5.638s-2.11 5.638-4.77 5.638c-2.66 0-4.77-2.545-4.77-5.638s2.11-5.638 4.77-5.638zM18.339 15.889c3.041 0.962 5.093 3.413 5.445 6.299 0.021 0.175 0.036 0.485 0.046 0.947 0.006 0.314-0.246 0.572-0.56 0.572h-18.043c-0.309 0-0.56-0.251-0.56-0.56 0-0.33 0.026-0.657 0.077-0.979 0.455-2.86 2.49-5.362 5.392-6.278 0.18-0.057 0.376-0.019 0.522 0.099 1.092 0.888 2.304 1.369 3.59 1.369 1.297 0 2.535-0.492 3.56-1.362 0.147-0.125 0.348-0.165 0.531-0.107z"></path>
</svg>
