<svg version="1.1" xmlns="http://www.w3.org/2000/svg" width="20" height="20" viewBox="0 0 20 20">
<title>icon_logout</title>
<path fill="#fff" d="M10.202 2.4c0.301 0 0.545 0.244 0.545 0.545 0 0.298-0.244 0.542-0.545 0.542v0h-4.054c-1.026 0-1.859 0.833-1.862 1.862v0 9.618c0 1.026 0.836 1.862 1.862 1.862v0h3.987c0.301 0 0.545 0.244 0.545 0.545 0 0.298-0.244 0.542-0.545 0.542v0h-3.987c-1.625 0-2.948-1.324-2.948-2.948v0-9.618c0-1.625 1.324-2.948 2.948-2.948v0zM13.534 6.641c0.212-0.212 0.557-0.212 0.77 0v0l3.132 3.129c0.016 0.013 0.025 0.028 0.038 0.041v0c0.016 0.016 0.022 0.028 0.032 0.041 0.003 0.003 0.003 0.006 0.006 0.009 0.009 0.013 0.016 0.025 0.022 0.038 0 0 0.003 0.003 0.003 0.006 0.006 0.013 0.013 0.028 0.019 0.041 0.003 0.003 0.003 0.003 0.003 0.006 0.006 0.016 0.013 0.028 0.016 0.044 0.003 0 0.003 0.003 0.003 0.006 0.003 0.016 0.006 0.028 0.009 0.044 0.003 0.006 0.003 0.009 0.003 0.016 0.003 0.013 0.006 0.025 0.006 0.038 0.003 0.019 0.003 0.035 0.003 0.054l-0 0.027-0.003 0.027-0.006 0.038c-0.003 0.006-0.003 0.009-0.003 0.016 0 0.016-0.006 0.028-0.009 0.044-0.003 0-0.003 0.003-0.003 0.006-0.006 0.016-0.009 0.032-0.016 0.044-0.003 0.003-0.003 0.003-0.003 0.006-0.006 0.016-0.013 0.028-0.019 0.041 0 0-0.003 0.003-0.003 0.006v0l-0.022 0.038c-0.003 0.003-0.003 0.006-0.006 0.009-0.006 0.013-0.016 0.022-0.025 0.035v0l-0.026 0.026-0.022 0.025-3.113 3.113c-0.105 0.105-0.244 0.158-0.383 0.158s-0.279-0.054-0.383-0.158c-0.212-0.212-0.212-0.557 0-0.77v0l2.188-2.188h-8.766c-0.301 0-0.545-0.244-0.545-0.545 0-0.298 0.244-0.542 0.545-0.542v0h8.763l-2.204-2.204c-0.212-0.212-0.212-0.557 0-0.77z"></path>
</svg>
